Chapter 2 - Time Series Graphics
…
Quarterly: yearquarter()

Monthly: yearmonth()

Weekly: yearweek()

Daily: as_date(), ymd() -Sub-daily: as_datetime()

Key Variables

A tsibble allows multiple time series to be stored in a single object. Consider mens and womens track races at the Olympics:

olympic_running

## # A tsibble: 312 x 4 [4Y]
## # Key:       Length, Sex [14]
##     Year Length Sex    Time
##    <int>  <int> <chr> <dbl>
##  1  1896    100 men    12  
##  2  1900    100 men    11  
##  3  1904    100 men    11  
##  4  1908    100 men    10.8
##  5  1912    100 men    10.8
##  6  1916    100 men    NA  
##  7  1920    100 men    10.8
##  8  1924    100 men    10.6
##  9  1928    100 men    10.8
## 10  1932    100 men    10.3
## #  with 302 more rows
…
## Parsed with column specification:
## cols(
##   date = col_date(format = ""),
##   state = col_character(),
##   gender = col_character(),
##   legal = col_character(),
##   indigenous = col_character(),
##   count = col_double()
## )

prison

## # A tibble: 3,072 x 6
##    state gender legal     indigenous count Quarter
##    <chr> <chr>  <chr>     <chr>      <dbl>   <qtr>
##  1 ACT   Female Remanded  ATSI           0 2005 Q1
##  2 ACT   Female Remanded  Non-ATSI       2 2005 Q1
##  3 ACT   Female Sentenced ATSI           0 2005 Q1
##  4 ACT   Female Sentenced Non-ATSI       5 2005 Q1
##  5 ACT   Male   Remanded  ATSI           7 2005 Q1
##  6 ACT   Male   Remanded  Non-ATSI      58 2005 Q1
##  7 ACT   Male   Sentenced ATSI           5 2005 Q1
##  8 ACT   Male   Sentenced Non-ATSI     101 2005 Q1
##  9 NSW   Female Remanded  ATSI          51 2005 Q1
## 10 NSW   Female Remanded  Non-ATSI     131 2005 Q1
## #  with 3,062 more rows
…
