Chapter 4 - Time Series Features
…
The feasts package includes functions for computing features and statistics from time series.

Weve seen some: autocorrelations, as well as Guerrero estimate of the Box-Cox transformation parameter.

Simple Statistics

Any numerical summary computed from a time series is a feature. This could be mean, minimum, maximum, etc.

The features() function helps compute these features. The following is the mean:

tourism %>% features(Trips, mean)

## # A tibble: 304 x 4
##    Region         State              Purpose    ...4
##    <chr>          <chr>              <chr>     <dbl>
##  1 Adelaide       South Australia    Business 156.  
##  2 Adelaide       South Australia    Holiday  157.  
##  3 Adelaide       South Australia    Other     56.6 
##  4 Adelaide       South Australia    Visiting 205.  
##  5 Adelaide Hills South Australia    Business   2.66
##  6 Adelaide Hills South Australia    Holiday   10.5 
##  7 Adelaide Hills South Australia    Other      1.40
##  8 Adelaide Hills South Australia    Visiting  14.2 
##  9 Alice Springs  Northern Territory Business  14.6 
## 10 Alice Springs  Northern Territory Holiday   31.9 
## #  with 294 more rows

A list of functions helps name the columns:

tourism %>% 
    features(Trips, list(Mean = mean)) %>% 
    arrange(Mean)

## # A tibble: 304 x 4
##    Region          State              Purpose   Mean
##    <chr>           <chr>              <chr>    <dbl>
##  1 Kangaroo Island South Australia    Other    0.340
##  2 MacDonnell      Northern Territory Other    0.449
##  3 Wilderness West Tasmania           Other    0.478
##  4 Barkly          Northern Territory Other    0.632
##  5 Clare Valley    South Australia    Other    0.898
##  6 Barossa         South Australia    Other    1.02 
##  7 Kakadu Arnhem   Northern Territory Other    1.04 
##  8 Lasseter        Northern Territory Other    1.14 
##  9 Wimmera         Victoria           Other    1.15 
## 10 MacDonnell      Northern Territory Visiting 1.18 
## #  with 294 more rows

Lets look at quantiles, the third argument to features is passed to the function thats being called. 0% is the minimum and 100% is the maximum.

tourism %>% 
    features(Trips, quantile, probs = seq(0, 1, 0.25))

## # A tibble: 304 x 8
##    Region       State          Purpose    `0%`  `25%`   `50%`  `75%` `100%`
##    <chr>        <chr>          <chr>     <dbl>  <dbl>   <dbl>  <dbl>  <dbl>
##  1 Adelaide     South Austral Busine  68.7   134.   153.    177.   242.  
##  2 Adelaide     South Austral Holiday 108.    135.   154.    172.   224.  
##  3 Adelaide     South Austral Other    25.9    43.9   53.8    62.5  107.  
##  4 Adelaide     South Austral Visiti 137.    179.   206.    229.   270.  
##  5 Adelaide Hi South Austral Busine   0       0      1.26    3.92  28.6 
##  6 Adelaide Hi South Austral Holiday   0       5.77   8.52   14.1   35.8 
##  7 Adelaide Hi South Austral Other     0       0      0.908   2.09   8.95
##  8 Adelaide Hi South Austral Visiti   0.778   8.91  12.2    16.8   81.1 
##  9 Alice Sprin Northern Terr Busine   1.01    9.13  13.3    18.5   34.1 
## 10 Alice Sprin Northern Terr Holiday   2.81   16.9   31.5    44.8   76.5 
## #  with 294 more rows
…
The first autocorrelation coefficient from the differenced data.

The sum of squares of the first ten autocorrelation coefficients from the differenced data.

The same as above for twice-differenced data.

For seasonal data, the autocorrelation coefficient at the first seasonal lag is also returned.

Application to the Australian tourism data:

tourism %>% 
    features(Trips, feat_acf)

## # A tibble: 304 x 10
##    Region State Purpose     acf1 acf10 diff1_acf1 diff1_acf10 diff2_acf1
##    <chr>  <chr> <chr>      <dbl> <dbl>      <dbl>       <dbl>      <dbl>
##  1 Adela Sout Busine  0.0333  0.131     -0.520       0.463     -0.676
##  2 Adela Sout Holiday  0.0456  0.372     -0.343       0.614     -0.487
##  3 Adela Sout Other    0.517   1.15      -0.409       0.383     -0.675
##  4 Adela Sout Visiti  0.0684  0.294     -0.394       0.452     -0.518
##  5 Adela Sout Busine  0.0709  0.134     -0.580       0.415     -0.750
##  6 Adela Sout Holiday  0.131   0.313     -0.536       0.500     -0.716
##  7 Adela Sout Other    0.261   0.330     -0.253       0.317     -0.457
##  8 Adela Sout Visiti  0.139   0.117     -0.472       0.239     -0.626
##  9 Alice Nort Busine  0.217   0.367     -0.500       0.381     -0.658
## 10 Alice Nort Holiday -0.00660 2.11      -0.153       2.11      -0.274
## #  with 294 more rows, and 2 more variables: diff2_acf10 <dbl>,
## #   season_acf1 <dbl>
…
