Chapter 3 - The Forecaster’s Toolbox
…
Each observation can be forecast using all previous observations. These are called fitted values and are denoted by \(\hat{y}_{t|t-1}\), or simply \(\hat{y}_t\). They always involve one-step forecasts.

They are often not true forecasts as they are estimated using all available observations, including those in the future. For example in the average method, \(y_t = \hat{c}\) where \(\hat{c}\) is the average of all available observations, including those after \(t\).

Residuals

Residuals in a time series model are what is ‘left over’ after fitting a model. For many (but not all) models, the residuals are \(e_t = y_t - \hat{y}_t\).

The augment() function can be used to calculate the residuals:

google_fit %>% 
  augment()

## # A tsibble: 756 x 6 [1]
## # Key:       Symbol, .model [3]
##    Symbol .model   day Close .fitted .resid
##    <chr>  <chr>  <int> <dbl>   <dbl>  <dbl>
##  1 GOOG   mean     253  522.    602.  -79.6
##  2 GOOG   mean     254  511.    602.  -90.5
##  3 GOOG   mean     255  499.    602. -102. 
##  4 GOOG   mean     256  498.    602. -103. 
##  5 GOOG   mean     257  500.    602. -102. 
##  6 GOOG   mean     258  493.    602. -108. 
##  7 GOOG   mean     259  490.    602. -112. 
##  8 GOOG   mean     260  493.    602. -108. 
##  9 GOOG   mean     261  498.    602. -103. 
## 10 GOOG   mean     262  499.    602. -103. 
## # … with 746 more rows
…
# A tsibble: 4 x 7 [1Q]
  Quarter  Beer Tobacco Bricks Cement Electricity   Gas
    <qtr> <dbl>   <dbl>  <dbl>  <dbl>       <dbl> <dbl>
1 2009 Q3   419      NA     NA   2325       58394   252
2 2009 Q4   488      NA     NA   2273       57336   210
3 2010 Q1   414      NA     NA   1904       58309   205
4 2010 Q2   374      NA     NA   2401       58041   236

# Slice with groupings
aus_retail %>%
  group_by(State, Industry)

# A tsibble: 64,532 x 5 [1M]
# Key:       State, Industry [152]
# Groups:    State, Industry [152]
   State             Industry                 `Series ID`    Month Turnover
   <chr>             <chr>                    <chr>          <mth>    <dbl>
 1 Australian Capit… Cafes, restaurants and … A3349849A   1982 Apr      4.4
 2 Australian Capit… Cafes, restaurants and … A3349849A   1982 May      3.4
 3 Australian Capit… Cafes, restaurants and … A3349849A   1982 Jun      3.6
 4 Australian Capit… Cafes, restaurants and … A3349849A   1982 Jul      4  
 5 Australian Capit… Cafes, restaurants and … A3349849A   1982 Aug      3.6
 6 Australian Capit… Cafes, restaurants and … A3349849A   1982 Sep      4.2
 7 Australian Capit… Cafes, restaurants and … A3349849A   1982 Oct      4.8
 8 Australian Capit… Cafes, restaurants and … A3349849A   1982 Nov      5.4
 9 Australian Capit… Cafes, restaurants and … A3349849A   1982 Dec      6.9
10 Australian Capit… Cafes, restaurants and … A3349849A   1983 Jan      3.8
# … with 64,522 more rows
…
