Chapter 12 - Advanced Forecasting Methods
…
Bagged Forecasts

A use for bootstrapping is to increase forecast accuracy. If we produce forecasts for each of the bootstrapped series, then average the resulting forecasts, we get better forecasts than simply using the original series directly. This is called bagging, a portmanteau of bootstrap aggregation.

With the cement data, we simulate many series that are similar to the original data:

cement_bag <-
  cement_stl %>% 
  generate(new_data = cement, times = 100, bootstrap_block_size = 8) %>% 
  select(-c(.model, Cement))

print(cement_bag)

## # A tsibble: 8,600 x 3 [1Q]
## # Key:       .rep [100]
##    .rep  Quarter  .sim
##    <chr>   <qtr> <dbl>
##  1 1     1989 Q1 1649.
##  2 1     1989 Q2 1783.
##  3 1     1989 Q3 1890.
##  4 1     1989 Q4 1741.
##  5 1     1990 Q1 1653.
##  6 1     1990 Q2 1618.
##  7 1     1990 Q3 1690.
##  8 1     1990 Q4 1629.
##  9 1     1991 Q1 1333.
## 10 1     1991 Q2 1496.
## #  with 8,590 more rows
…
